<?xml version="1.0" encoding="utf-8"?>
<!-- Generator: Adobe Illustrator 24.3.0, SVG Export Plug-In . SVG Version: 6.00 Build 0)  -->
<svg version="1.1" id="Layer_1" xmlns="http://www.w3.org/2000/svg" xmlns:xlink="http://www.w3.org/1999/xlink" x="0px" y="0px"
	 viewBox="0 0 506 446" style="enable-background:new 0 0 506 446;" xml:space="preserve">
<path d="M180.7,282.3c-4.7,0-8.7,0.4-11.9,1.3l0.3-1.7c2.4-14.9,4.8-29.9,7.3-45.3c-9.1,0-17.6,0-26.1,0c-0.2,1.1-0.4,1.9-0.5,2.7
	c-1.5,12.2-2.5,24.5-4.5,36.7c-4.7,27.7-10,55.3-15,83c-3.2,17.6-7.1,34.9-18.4,49.6c-8.5,11.1-20.1,17.5-34.1,22
	c4.9-10.5,5.3-19.6-2-28c-8.1-9.2-20.2-12.6-31.2-7.4c-5.3,2.5-10.8,6.5-14.1,11.3c-7,10-2.5,21.7,10.2,28.9
	c16.1,9.2,33.3,7.4,49.3,1.3c30.8-11.7,50.8-34.4,59.5-66.2c6-21.9,10.5-44.3,15.8-66.5c0.1-0.6,0.3-1.6,0.4-2.8
	c3.9-2.7,8-4.1,12.4-4.1c5.1,0,9.3,1.9,12.6,5.8c3.3,3.9,4.4,8.8,3.4,14.6l-9.8,55.9h17l10-56.7c1.6-9.7-0.4-17.8-5.9-24.5
	C199.8,285.6,191.6,282.3,180.7,282.3z"/>
<path d="M309.5,297.2c-4.7-11.5-13.9-17.2-27.7-17.2c-13.7,0-26.1,4.7-37.3,14.2c-11.2,9.5-17.9,20.7-20.3,33.8
	c-2.3,12.9,0.5,24.1,8.3,33.6c7.8,9.5,18.6,14.2,32.3,14.2c13.8,0,25.1-5.8,33.9-17.4l-2.6,15.1h17.1l15.2-86.5h-17.1L309.5,297.2z
	 M302.8,334.7c-2.3,6.2-6.1,11.6-11.5,16.2c-7.5,6.4-15.5,9.6-23.9,9.6c-8.5,0-15.3-3.1-20.5-9.4c-5.1-6.2-6.9-14-5.3-23.2
	c1.6-9.3,6.1-17.1,13.5-23.4c7.3-6.3,15.3-9.5,23.8-9.5c8.5,0,15.3,3.2,20.5,9.7c3.8,4.5,5.7,9.9,5.8,16.2L302.8,334.7z"/>
<path d="M365.6,304.5c7.3-6.3,15.3-9.4,23.7-9.4c8.5,0,15.2,3,20.3,9.1c0.7,0.9,1.9,2.7,3.7,5.6l17.3-6.1c-2.5-4.4-4.6-7.6-6.3-9.7
	c-7.6-9.3-18.4-14-32.2-14c-13.7,0-26.1,4.7-37.3,14.2c-11.2,9.5-17.9,20.7-20.3,33.7c-2.3,13,0.5,24.2,8.3,33.7
	c7.8,9.5,18.6,14.2,32.3,14.2c13.8,0,26.4-4.8,37.7-14.5c2.2-2,5.3-5.1,9.4-9.5l-15.2-6c-2.8,2.8-4.5,4.4-5.2,5
	c-7.5,6.4-15.5,9.6-23.9,9.6c-8.5,0-15.2-3.1-20.3-9.4c-5.1-6.3-6.9-14-5.3-23.2C353.8,318.5,358.3,310.8,365.6,304.5z"/>
<polygon points="500,287 479.2,287 461.8,304.6 470.9,253.4 453.8,253.4 432.6,373.5 449.7,373.5 457.3,330.5 458.8,328.9 
	475.4,373.5 495,373.5 472.3,315.2 "/>
<polygon points="150.8,95 104.1,200.1 89.1,129 77.7,129 37.7,200.1 28,95 10.6,95 23.1,231.1 38,231.1 78.1,159.4 92.6,231.1 
	107.6,231.1 168.1,95 "/>
<path d="M204.2,139.9c-5.7,0-10.2,0.6-13.7,1.8c0.3-1.8,0.7-3.8,0.9-4.7c3.4-19,6.8-38,10.1-57c3.1-17.4,8.9-33.5,21.5-46.4
	c8-8.1,17.8-12.9,27.6-15.9c-0.7,5.6-2.5,11.3-1.7,16.5c1.8,11.2,10.1,17.5,20.5,20.1c11,2.7,20.5-1.5,27.8-9.7
	c7.9-8.7,7.1-19-1.4-27.1c-2.6-2.5-5.7-4.6-8.9-6.3c-12-6.6-25.2-5.9-37.5-2.7c-29.2,7.5-50.5,25.3-62.9,53.1
	c-11.2,25.1-16.3,52-21.2,78.8c-3.6,20-6.7,40.1-9.9,60.1c-1.6,10.2-2.9,20.4-4.4,31.4c4.9,0,9.6,0,14.1,0l0,0l12.1,0l0.5-2.5
	l0.7-3.9c3-20.3,5.9-40.6,8.8-60.9c0.1-0.7,0.4-2.5,0.7-4.8c4.3-3.3,8.9-5,13.7-5c5.1,0,9.3,1.9,12.6,5.8c3.3,3.9,4.4,8.8,3.4,14.6
	l-9.8,55.9h17l10-56.7c1.6-9.7-0.4-17.8-5.9-24.5C223.3,143.3,215.1,139.9,204.2,139.9z"/>
<polygon points="312.8,144.6 281.9,192.4 267.8,144.6 249.3,144.6 269,212.7 238,261.1 256.4,261.1 331.3,144.6 "/>
</svg>
